{
    "fields": [
        {
            "name": "empresa_id",
            "type": "integer"
        },
        {
            "name": "nombre",
            "type": "string"
        },
        {
            "name": "fecha_envio",
            "type": "datetime"
        },
        {
            "name":"estado",
            "type":"select",
            "options":{
                "1":"pendiente de envio",
                "2":"enviado"
            }
        }


    ]
}